encoder/serial_encoder/simulation/qsim/SerialEncoder.msim.vcd
$comment
	File created using the following command:
		vcd file SerialEncoder.msim.vcd -direction
$end
$date
	Fri Nov 11 20:42:36 2022
$end
$version
	ModelSim Version 10.5b
$end
$timescale
	1ps
$end

$scope module serialencoder_vhd_vec_tst $end
$var wire 1 ! busy $end
$var wire 1 " clk $end
$var wire 1 # GRst $end
$var wire 1 $ mI $end
$var wire 1 % y [7] $end
$var wire 1 & y [6] $end
$var wire 1 ' y [5] $end
$var wire 1 ( y [4] $end
$var wire 1 ) y [3] $end
$var wire 1 * y [2] $end
$var wire 1 + y [1] $end
$var wire 1 , y [0] $end

$scope module i1 $end
$var wire 1 - gnd $end
$var wire 1 . vcc $end
$var wire 1 / unknown $end
$var wire 1 0 devoe $end
$var wire 1 1 devclrn $end
$var wire 1 2 devpor $end
$var wire 1 3 ww_devoe $end
$var wire 1 4 ww_devclrn $end
$var wire 1 5 ww_devpor $end
$var wire 1 6 ww_clk $end
$var wire 1 7 ww_mI $end
$var wire 1 8 ww_GRst $end
$var wire 1 9 ww_busy $end
$var wire 1 : ww_y [7] $end
$var wire 1 ; ww_y [6] $end
$var wire 1 < ww_y [5] $end
$var wire 1 = ww_y [4] $end
$var wire 1 > ww_y [3] $end
$var wire 1 ? ww_y [2] $end
$var wire 1 @ ww_y [1] $end
$var wire 1 A ww_y [0] $end
$var wire 1 B \mI~input_o\ $end
$var wire 1 C \~QUARTUS_CREATED_GND~I_combout\ $end
$var wire 1 D \clk~input_o\ $end
$var wire 1 E \clk~inputCLKENA0_outclk\ $end
$var wire 1 F \counter30|ff0|Q~0_combout\ $end
$var wire 1 G \GRst~input_o\ $end
$var wire 1 H \counter30|ff0|Q~q\ $end
$var wire 1 I \counter30|ff0|Q~DUPLICATE_q\ $end
$var wire 1 J \counter30|ff1|Q~0_combout\ $end
$var wire 1 K \counter30|ff1|Q~q\ $end
$var wire 1 L \counter30|ff2|Q~0_combout\ $end
$var wire 1 M \counter30|ff2|Q~q\ $end
$var wire 1 N \counter30|ff0|ALT_INV_Q~DUPLICATE_q\ $end
$var wire 1 O \counter30|ff2|ALT_INV_Q~q\ $end
$var wire 1 P \counter30|ff1|ALT_INV_Q~q\ $end
$var wire 1 Q \counter30|ff0|ALT_INV_Q~q\ $end
$upscope $end
$upscope $end
$enddefinitions $end
#0
$dumpvars
0!
0"
1#
0$
0-
1.
x/
10
11
12
13
14
15
06
07
18
09
0B
xC
0D
0E
1F
1G
0H
0I
0J
0K
0L
0M
1N
1O
1P
1Q
0:
0;
0<
0=
0>
0?
0@
0A
0%
0&
0'
0(
0)
0*
0+
0,
$end
#1644
1$
17
1B
#4177
0$
07
0B
#8310
1$
17
1B
#10843
0$
07
0B
#14976
1$
17
1B
#17509
0$
07
0B
#20000
1$
17
1B
#20760
0$
07
0B
#23910
1$
17
1B
#25760
0$
07
0B
#28910
1$
17
1B
#33264
0$
07
0B
#35931
1$
17
1B
#39930
0$
07
0B
#40000
1"
16
1D
1E
1H
1I
0N
0Q
0F
1J
1A
1,
#42597
1$
17
1B
#46596
0$
07
0B
#49263
1$
17
1B
#53392
0$
07
0B
#57992
1$
17
1B
#63392
0$
07
0B
#67992
1$
17
1B
#70000
0$
07
0B
#73747
1$
17
1B
#77247
0$
07
0B
#80000
0"
06
0D
0E
#83747
1$
17
1B
#87247
0$
07
0B
#90000
1$
17
1B
#94552
0$
07
0B
#99352
1$
17
1B
#100000
0$
07
0B
#102957
1$
17
1B
#106957
0$
07
0B
#112957
1$
17
1B
#116957
0$
07
0B
#120000
1"
16
1D
1E
0H
0I
1K
0P
1N
1Q
1F
1@
0A
0,
1+
#123791
1$
17
1B
#128291
0$
07
0B
#130000
1$
17
1B
#131811
0$
07
0B
#138311
1$
17
1B
#143280
0$
07
0B
#148780
1$
17
1B
#153280
0$
07
0B
#158780
1$
17
1B
#160000
0"
06
0D
0E
#162362
0$
07
0B
#167462
1$
17
1B
#172738
0$
07
0B
#179238
1$
17
1B
#182738
0$
07
0B
#189238
1$
17
1B
#190000
0$
07
0B
#195823
1$
17
1B
#199423
0$
07
0B
#200000
1"
16
1D
1E
1H
1I
0N
0Q
0F
0J
1L
1A
1,
#205823
1$
17
1B
#209423
0$
07
0B
#210000
1$
17
1B
#215552
0$
07
0B
#226352
1$
17
1B
#230000
0$
07
0B
#230957
1$
17
1B
#233107
0$
07
0B
#235957
1$
17
1B
#238107
0$
07
0B
#240000
0"
06
0D
0E
#243902
1$
17
1B
#247702
0$
07
0B
#253902
1$
17
1B
#257702
0$
07
0B
#261083
1$
17
1B
#262916
0$
07
0B
#264416
1$
17
1B
#266249
0$
07
0B
#267749
1$
17
1B
#269582
0$
07
0B
#270038
1$
17
1B
#274338
0$
07
0B
#280000
1"
16
1D
1E
0H
0I
0K
1M
0O
1P
1N
1Q
1F
1?
0@
0A
0,
0+
1*
#280038
1$
17
1B
#284338
0$
07
0B
#290418
1$
17
1B
#292218
0$
07
0B
#295418
1$
17
1B
#297218
0$
07
0B
#300130
1$
17
1B
#301663
0$
07
0B
#303463
1$
17
1B
#304996
0$
07
0B
#306796
1$
17
1B
#308329
0$
07
0B
#310000
1$
17
1B
#310991
0$
07
0B
#315524
1$
17
1B
#317657
0$
07
0B
#320000
0"
06
0D
0E
#322190
1$
17
1B
#324323
0$
07
0B
#328856
1$
17
1B
#330000
0$
07
0B
#332930
1$
17
1B
#338830
0$
07
0B
#340000
1$
17
1B
#341776
0$
07
0B
#346776
1$
17
1B
#352496
0$
07
0B
#356696
1$
17
1B
#360000
0$
1"
07
16
1D
0B
1E
1H
1I
0N
0Q
0F
1J
1A
1,
#366465
1$
17
1B
#369565
0$
07
0B
#373641
1$
17
1B
#378541
0$
07
0B
#380000
1$
17
1B
#380349
0$
07
0B
#384882
1$
17
1B
#387015
0$
07
0B
#391548
1$
17
1B
#393681
0$
07
0B
#398214
1$
17
1B
#400000
0"
06
0D
0E
#401529
0$
07
0B
#413929
1$
17
1B
#423652
0$
07
0B
#427952
1$
17
1B
#433652
0$
07
0B
#437952
1$
17
1B
#440000
1"
16
1D
1E
0H
0I
1K
0P
1N
1Q
1F
1@
0A
0,
1+
#440169
0$
07
0B
#445469
1$
17
1B
#450411
0$
07
0B
#452011
1$
17
1B
#453744
0$
07
0B
#455344
1$
17
1B
#457077
0$
07
0B
#458677
1$
17
1B
#460000
0$
07
0B
#462571
1$
17
1B
#464371
0$
07
0B
#467571
1$
17
1B
#469371
0$
07
0B
#473392
1$
17
1B
#476992
0$
07
0B
#480000
0"
06
0D
0E
#483392
1$
17
1B
#486992
0$
07
0B
#494024
1$
17
1B
#496157
0$
07
0B
#500690
1$
17
1B
#502823
0$
07
0B
#507356
1$
17
1B
#509489
0$
07
0B
#510000
1$
17
1B
#511331
0$
07
0B
#513781
1$
17
1B
#516331
0$
07
0B
#518781
1$
17
1B
#520000
1"
16
1D
1E
1H
1I
0N
0Q
0F
0J
0L
1A
1,
#531598
0$
07
0B
#539798
1$
17
1B
#540000
0$
07
0B
#543450
1$
17
1B
#547850
0$
07
0B
#550311
1$
17
1B
#556011
0$
07
0B
#560000
0"
06
0D
0E
#563169
1$
17
1B
#566269
0$
07
0B
#570000
1$
17
1B
#571272
0$
07
0B
#572672
1$
17
1B
#574605
0$
07
0B
#576005
1$
17
1B
#577938
0$
07
0B
#579338
1$
17
1B
#580000
0$
07
0B
#583815
1$
17
1B
#587515
0$
07
0B
#593815
1$
17
1B
#597515
0$
07
0B
#600000
1$
1"
17
16
1D
1B
1E
0H
0I
0K
0M
1O
1P
1N
1Q
1F
0?
0@
0A
0,
0+
0*
#600926
0$
07
0B
#604993
1$
17
1B
#607592
0$
07
0B
#611659
1$
17
1B
#614258
0$
07
0B
#618325
1$
17
1B
#620000
0$
07
0B
#620127
1$
17
1B
#624027
0$
07
0B
#630475
1$
17
1B
#632375
0$
07
0B
#635475
1$
17
1B
#637375
0$
07
0B
#640000
0"
06
0D
0E
#641262
1$
17
1B
#642761
0$
07
0B
#644595
1$
17
1B
#646094
0$
07
0B
#647928
1$
17
1B
#649427
0$
07
0B
#650446
1$
17
1B
#655146
0$
07
0B
#668038
1$
17
1B
#677038
0$
07
0B
#680000
1"
16
1D
1E
1H
1I
0N
0Q
0F
1J
1A
1,
#681135
1$
17
1B
#685135
0$
07
0B
#690000
1$
17
1B
#693831
0$
07
0B
#698331
1$
17
1B
#700000
0$
07
0B
#701556
1$
17
1B
#703356
0$
07
0B
#706556
1$
17
1B
#708356
0$
07
0B
#711227
1$
17
1B
#714927
0$
07
0B
#720000
1$
0"
17
06
0D
1B
0E
#720588
0$
07
0B
#723588
1$
17
1B
#725588
0$
07
0B
#728588
1$
17
1B
#730192
0$
07
0B
#732159
1$
17
1B
#733525
0$
07
0B
#735492
1$
17
1B
#736858
0$
07
0B
#738825
1$
17
1B
#741487
0$
07
0B
#744387
1$
17
1B
#746487
0$
07
0B
#749387
1$
17
1B
#751910
0$
07
0B
#756210
1$
17
1B
#760000
0$
1"
07
16
1D
0B
1E
0H
0I
1K
0P
1N
1Q
1F
1@
0A
0,
1+
#762563
1$
17
1B
#764713
0$
07
0B
#767563
1$
17
1B
#769713
0$
07
0B
#770000
1$
17
1B
#771836
0$
07
0B
#776936
1$
17
1B
#790767
0$
07
0B
#799767
1$
17
1B
#800000
0$
0"
07
06
0D
0B
0E
#801158
1$
17
1B
#802591
0$
07
0B
#804491
1$
17
1B
#805924
0$
07
0B
#807824
1$
17
1B
#809257
0$
07
0B
#810000
0#
08
0G
0K
1P
0J
0@
0+
#812685
1$
17
1B
#818085
0$
07
0B
#823463
1$
17
1B
#825662
0$
07
0B
#830129
1$
17
1B
#832328
0$
07
0B
#836795
1$
17
1B
#838994
0$
07
0B
#840000
1$
1"
17
16
1D
1B
1E
#841298
0$
07
0B
#843998
1$
17
1B
#846298
0$
07
0B
#848998
1$
17
1B
#851581
0$
07
0B
#857181
1$
17
1B
#861581
0$
07
0B
#867181
1$
17
1B
#870516
0$
07
0B
#872416
1$
17
1B
#873849
0$
07
0B
#875749
1$
17
1B
#877182
0$
07
0B
#879082
1$
17
1B
#880000
0$
0"
1#
07
06
18
1G
0D
0B
0E
#882731
1$
17
1B
#885597
0$
07
0B
#889397
1$
17
1B
#892263
0$
07
0B
#896063
1$
17
1B
#898929
0$
07
0B
#900000
1$
17
1B
#904467
0$
07
0B
#909767
1$
17
1B
#914467
0$
07
0B
#919767
1$
17
1B
#920000
1"
16
1D
1E
1H
1I
0N
0Q
0F
1J
1A
1,
#922078
0$
07
0B
#928678
1$
17
1B
#931833
0$
07
0B
#938333
1$
17
1B
#941833
0$
07
0B
#948333
1$
17
1B
#950657
0$
07
0B
#960000
0"
06
0D
0E
#964657
1$
17
1B
#971499
0$
07
0B
#976099
1$
17
1B
#980000
0$
07
0B
#984714
1$
17
1B
#992714
0$
07
0B
